{
    "user": [{
        "username": "deepika",
        "password": "123456"
    }],
    "TimeTable": [{
        "id": 1,
        "Period": 1,
        "Day": "Monday",
        "Subject": "Maths"
    }],
    "Activities": [{
        "id": 1,
        "activity": "Create Project File",
        "subject": "Maths"
    }],
    "Extra_Activity": [{
        "id": 1,
        "date": "12/12/2021",
        "activity": "Learned Chapter 12",
        "Subject": "Science"
    }],
    "Profile": [{
        "id": 1,
        "Name": "Gowtham",
        "Phone": "9260980181",
        "Subject": "Science"
    }, {
        "id": 2,
        "Name": "ragasree",
        "Phone": "9260980181",
        "Subject": "Science"
    }, {
        "id": 3,
        "Name": "Kumar",
        "Phone": "9260980181",
        "Subject": "Science"
    }, {
        "id": 4,
        "Name": "Sree",
        "Phone": "9260980181",
        "Subject": "Science"
    }, {
        "id": 5,
        "Name": "sai",
        "Phone": "9260980181",
        "Subject": "Science"
    }]
}